<svg xmlns="http://www.w3.org/2000/svg" xmlns:xlink="http://www.w3.org/1999/xlink" preserveAspectRatio="xMidYMid" width="7" height="4" viewBox="0 0 7 4">
  <defs>
    <style>
      .cls-1 {
        fill: #a8aab7;
        fill-rule: evenodd;
      }
    </style>
  </defs>
  <path d="M6.806,0.935 L3.875,3.810 C3.658,4.024 3.306,4.024 3.089,3.810 L0.157,0.935 C-0.060,0.721 -0.060,0.374 0.157,0.160 C0.374,-0.054 0.726,-0.054 0.943,0.160 L3.482,2.650 L6.020,0.160 C6.237,-0.054 6.589,-0.054 6.806,0.160 C7.023,0.374 7.023,0.721 6.806,0.935 Z" class="cls-1"/>
</svg>
