<svg xmlns="http://www.w3.org/2000/svg" xmlns:xlink="http://www.w3.org/1999/xlink" preserveAspectRatio="xMidYMid" width="20" height="20" viewBox="0 0 20 20">
  <defs>
    <style>
      .cls-1 {
        fill: #ff406c;
        fill-rule: evenodd;
      }
    </style>
  </defs>
  <path d="M19.915,16.861 C19.915,16.861 19.638,15.796 19.637,15.792 C19.335,14.632 19.270,13.407 19.583,12.250 C19.968,10.824 20.033,9.271 19.686,7.663 C18.766,3.408 14.862,0.004 9.960,0.003 C4.005,0.003 -0.728,5.130 0.102,11.127 C0.744,15.768 4.875,19.520 9.960,19.520 C11.429,19.520 11.724,19.259 13.020,19.258 C14.584,19.258 16.794,19.920 16.794,19.920 C18.683,20.393 20.397,18.712 19.915,16.861 ZM17.441,18.001 C17.441,18.001 14.826,17.259 13.020,17.259 C11.547,17.259 11.210,17.520 9.960,17.520 C5.882,17.520 2.588,14.510 2.082,10.853 C1.411,6.000 5.273,2.003 9.960,2.003 C13.901,2.003 17.001,4.706 17.732,8.086 C17.999,9.321 17.972,10.546 17.653,11.728 C17.273,13.134 17.290,14.713 17.703,16.296 C17.913,17.105 18.302,18.001 17.441,18.001 ZM6.877,9.943 C6.877,11.047 5.981,11.942 4.877,11.942 C3.774,11.942 2.879,11.047 2.879,9.943 C2.879,8.838 3.774,7.943 4.877,7.943 C5.981,7.943 6.877,8.838 6.877,9.943 ZM11.874,9.943 C11.874,11.047 10.979,11.942 9.875,11.942 C8.771,11.942 7.876,11.047 7.876,9.943 C7.876,8.838 8.771,7.943 9.875,7.943 C10.979,7.943 11.874,8.838 11.874,9.943 ZM16.871,9.943 C16.871,11.047 15.976,11.942 14.873,11.942 C13.769,11.942 12.874,11.047 12.874,9.943 C12.874,8.838 13.769,7.943 14.873,7.943 C15.976,7.943 16.871,8.838 16.871,9.943 Z" class="cls-1"/>
</svg>
