<svg xmlns="http://www.w3.org/2000/svg" xmlns:xlink="http://www.w3.org/1999/xlink" preserveAspectRatio="xMidYMid" width="6" height="10" viewBox="0 0 6 10">
  <defs>
    <style>
      .cls-1 {
        fill: #fff;
        fill-rule: evenodd;
      }
    </style>
  </defs>
  <path d="M-0.016,4.999 L5.999,-0.013 L5.999,10.012 L-0.016,4.999 Z" class="cls-1"/>
</svg>
