<svg xmlns="http://www.w3.org/2000/svg" xmlns:xlink="http://www.w3.org/1999/xlink" preserveAspectRatio="xMidYMid" width="20" height="20.031" viewBox="0 0 20 20.031">
  <defs>
    <style>
      .cls-1 {
        fill: #fff;
        fill-rule: evenodd;
      }
    </style>

  </defs>
  <path d="M18.107,0.015 L2.114,0.015 L2.111,0.015 C1.008,0.015 0.001,0.439 0.001,1.544 L0.001,13.546 C0.001,14.650 1.008,16.018 2.111,16.018 L2.114,16.018 L8.109,16.018 C8.660,16.018 9.108,16.466 9.108,17.018 C9.108,17.570 8.660,18.018 8.109,18.018 L5.110,18.018 C4.558,18.018 4.111,18.466 4.111,19.018 C4.111,19.571 4.558,20.019 5.110,20.019 L15.106,20.019 C15.657,20.019 16.105,19.571 16.105,19.018 C16.105,18.466 15.657,18.018 15.106,18.018 L12.107,18.018 C11.554,18.018 11.107,17.570 11.107,17.018 C11.107,16.466 11.554,16.018 12.107,16.018 L18.107,16.018 C19.209,16.018 19.991,14.652 19.991,13.549 L19.991,13.546 L19.991,1.544 L19.991,1.540 C19.991,0.438 19.209,0.015 18.107,0.015 ZM17.993,13.017 C17.993,13.570 17.545,14.017 16.993,14.017 L3.000,14.017 C2.448,14.017 2.001,13.570 2.001,13.017 L2.001,3.016 C2.001,2.463 2.448,2.016 3.000,2.016 L16.993,2.016 C17.545,2.016 17.993,2.463 17.993,3.016 L17.993,13.017 ZM8.997,5.545 L8.997,9.545 C8.997,10.098 8.549,10.545 7.998,10.545 C7.445,10.545 6.997,10.098 6.997,9.545 L6.997,5.545 C6.997,4.992 7.445,4.544 7.998,4.544 C8.549,4.544 8.997,4.992 8.997,5.545 ZM12.995,5.545 L12.995,9.545 C12.995,10.098 12.548,10.545 11.995,10.545 C11.444,10.545 10.996,10.098 10.996,9.545 L10.996,5.545 C10.996,4.992 11.444,4.544 11.995,4.544 C12.548,4.544 12.995,4.992 12.995,5.545 Z" class="cls-1"/>
</svg>
