<svg xmlns="http://www.w3.org/2000/svg" xmlns:xlink="http://www.w3.org/1999/xlink" preserveAspectRatio="xMidYMid" width="16" height="18" viewBox="0 0 16 18">
  <defs>
    <style>
      .cls-1 {
        fill: #8a94a1;
        fill-rule: evenodd;
      }
    </style>
  </defs>
  <path d="M13.996,9.992 C13.996,12.990 11.308,15.989 8.004,15.989 C4.700,15.989 2.012,13.299 2.012,9.992 C2.012,6.686 4.700,3.996 8.004,3.996 L8.004,5.995 L12.997,2.997 L8.004,-0.002 L8.004,1.997 C3.592,1.997 0.015,5.577 0.015,9.992 C0.015,14.408 3.592,17.987 8.004,17.987 C12.416,17.987 15.993,14.989 15.993,9.992 L13.996,9.992 Z" class="cls-1"/>
</svg>
