<svg xmlns="http://www.w3.org/2000/svg" xmlns:xlink="http://www.w3.org/1999/xlink" preserveAspectRatio="xMidYMid" width="7.593" height="6.062" viewBox="0 0 7.593 6.062">
  <defs>
    <style>
      .cls-1 {
        fill: #fff;
        fill-rule: evenodd;
      }
    </style>
  </defs>
  <path d="M7.291,1.689 L3.220,5.760 C2.829,6.150 2.196,6.150 1.806,5.760 L0.270,4.225 C-0.120,3.834 -0.120,3.201 0.270,2.810 C0.661,2.419 1.294,2.419 1.684,2.810 L2.513,3.639 L5.877,0.274 C6.267,-0.117 6.900,-0.117 7.291,0.274 C7.682,0.664 7.682,1.297 7.291,1.689 " class="cls-1"/>
</svg>
