<svg xmlns="http://www.w3.org/2000/svg" xmlns:xlink="http://www.w3.org/1999/xlink" preserveAspectRatio="xMidYMid" width="52.66" height="46.875" viewBox="0 0 52.66 46.875">
  <defs>
    <style>
      .cls-1 {
        fill: #fff;
        fill-rule: evenodd;
      }
    </style>
  </defs>
  <path d="M45.477,43.297 C43.487,43.297 41.484,42.912 40.103,42.163 L40.103,43.297 C40.103,45.645 36.499,46.874 32.938,46.874 C29.377,46.874 25.772,45.645 25.772,43.297 L25.772,41.560 C23.526,42.114 20.892,42.402 17.711,42.402 C5.788,42.402 -0.008,38.183 -0.008,29.505 C-0.008,24.170 4.154,14.427 13.406,9.466 C13.508,9.411 13.627,9.351 13.754,9.290 C13.351,8.637 12.941,7.963 12.545,7.303 C11.760,5.996 10.868,4.515 10.566,4.187 C10.502,4.117 10.447,4.065 10.403,4.023 C10.207,3.836 9.685,3.340 10.155,2.500 C12.298,-1.317 17.409,0.129 20.465,0.995 C21.806,1.376 23.083,1.694 23.967,1.444 C25.030,1.139 25.805,1.271 26.271,1.836 C27.008,2.733 26.383,3.537 26.147,3.839 C25.876,4.189 25.180,5.353 24.445,6.583 C23.824,7.621 23.136,8.769 22.493,9.786 C25.687,11.805 28.445,14.402 30.693,17.528 C31.420,17.418 32.179,17.358 32.938,17.358 C36.499,17.358 40.103,18.587 40.103,20.936 L40.103,25.408 L40.103,28.331 C41.484,27.582 43.487,27.197 45.477,27.197 C49.039,27.197 52.643,28.426 52.643,30.775 L52.643,35.247 L52.643,39.719 C52.643,42.068 49.039,43.297 45.477,43.297 ZM22.906,5.666 C23.536,4.614 24.065,3.729 24.431,3.172 C23.103,3.538 21.625,3.185 19.975,2.716 C16.570,1.752 13.398,1.059 11.937,3.035 C12.348,3.511 13.029,4.633 14.081,6.382 C14.534,7.137 15.006,7.915 15.461,8.646 C16.935,8.235 18.880,8.069 20.923,8.919 C21.569,7.901 22.273,6.726 22.906,5.666 ZM21.128,11.018 C18.340,9.324 15.624,10.307 14.253,11.041 C4.832,16.093 1.784,25.662 1.784,29.505 C1.784,37.084 6.845,40.613 17.711,40.613 C20.958,40.613 23.586,40.307 25.772,39.713 L25.772,38.824 L25.772,34.352 L25.772,29.880 L25.772,25.408 L25.772,20.936 C25.772,19.555 27.023,18.564 28.775,17.980 C26.647,15.175 24.093,12.819 21.128,11.018 ZM32.938,19.147 C29.604,19.147 27.564,20.305 27.564,20.936 C27.564,21.567 29.604,22.725 32.938,22.725 C36.271,22.725 38.312,21.567 38.312,20.936 C38.312,20.305 36.271,19.147 32.938,19.147 ZM38.312,23.380 C36.931,24.129 34.928,24.514 32.938,24.514 C30.947,24.514 28.944,24.129 27.564,23.380 L27.564,25.408 C27.564,26.039 29.604,27.197 32.938,27.197 C36.271,27.197 38.312,26.039 38.312,25.408 L38.312,23.380 ZM38.312,27.852 C36.931,28.601 34.928,28.986 32.938,28.986 C30.947,28.986 28.944,28.601 27.564,27.852 L27.564,29.880 C27.564,30.511 29.604,31.669 32.938,31.669 C36.271,31.669 38.312,30.511 38.312,29.880 L38.312,27.852 ZM38.312,32.324 C36.931,33.073 34.928,33.458 32.938,33.458 C30.947,33.458 28.944,33.073 27.564,32.324 L27.564,34.352 C27.564,34.983 29.604,36.141 32.938,36.141 C36.271,36.141 38.312,34.983 38.312,34.352 L38.312,32.324 ZM38.312,36.796 C36.931,37.545 34.928,37.930 32.938,37.930 C30.947,37.930 28.944,37.545 27.564,36.796 L27.564,38.824 C27.564,39.455 29.604,40.613 32.938,40.613 C36.271,40.613 38.312,39.455 38.312,38.824 L38.312,36.796 ZM38.312,41.268 C36.931,42.017 34.928,42.402 32.938,42.402 C30.942,42.402 28.944,42.010 27.564,41.257 L27.564,43.297 C27.564,43.927 29.604,45.085 32.938,45.085 C36.271,45.085 38.312,43.927 38.312,43.297 L38.312,41.268 ZM45.477,28.986 C42.144,28.986 40.103,30.144 40.103,30.775 C40.103,31.405 42.144,32.563 45.477,32.563 C48.811,32.563 50.852,31.405 50.852,30.775 C50.852,30.144 48.811,28.986 45.477,28.986 ZM50.852,33.219 C49.471,33.967 47.468,34.352 45.477,34.352 C43.487,34.352 41.484,33.968 40.103,33.219 L40.103,34.352 L40.103,35.247 C40.103,35.877 42.144,37.036 45.477,37.036 C48.811,37.036 50.852,35.877 50.852,35.247 L50.852,33.219 ZM50.852,37.691 C49.471,38.440 47.468,38.824 45.477,38.824 C43.487,38.824 41.484,38.440 40.103,37.691 L40.103,38.824 L40.103,39.719 C40.103,40.350 42.144,41.508 45.477,41.508 C48.811,41.508 50.852,40.350 50.852,39.719 L50.852,37.691 ZM23.137,28.550 L22.042,28.550 L21.224,32.198 C21.153,32.506 21.018,32.719 20.815,32.838 C20.612,32.956 20.335,33.015 19.983,33.015 C19.703,33.015 19.446,32.967 19.212,32.870 C18.979,32.774 18.827,32.558 18.757,32.225 L17.952,28.550 L16.805,28.550 L16.013,32.225 C15.935,32.558 15.780,32.774 15.551,32.870 C15.323,32.967 15.068,33.015 14.787,33.015 C14.434,33.015 14.155,32.956 13.949,32.838 C13.742,32.719 13.604,32.506 13.533,32.198 L12.716,28.550 L11.449,28.550 L11.449,27.272 L12.425,27.272 L11.515,23.189 L12.980,23.189 L13.876,27.272 L15.750,27.272 L16.554,23.597 L18.217,23.597 L19.007,27.272 L20.881,27.272 L21.777,23.189 L23.256,23.189 L22.332,27.272 L23.137,27.272 C23.356,27.272 23.467,27.487 23.467,27.917 C23.467,28.145 23.440,28.308 23.387,28.405 C23.334,28.502 23.250,28.550 23.137,28.550 ZM14.167,28.550 L14.351,29.406 C14.412,29.705 14.488,30.029 14.575,30.381 C14.663,30.732 14.747,31.097 14.826,31.474 C14.896,31.141 14.973,30.787 15.057,30.414 C15.140,30.040 15.217,29.705 15.288,29.406 L15.473,28.550 L14.167,28.550 ZM17.550,26.482 C17.502,26.218 17.447,25.942 17.385,25.652 C17.332,25.933 17.280,26.210 17.227,26.482 C17.174,26.754 17.126,27.017 17.082,27.272 L17.688,27.272 C17.644,27.008 17.598,26.745 17.550,26.482 ZM19.285,28.550 L19.469,29.406 C19.540,29.705 19.619,30.040 19.707,30.414 C19.794,30.787 19.874,31.141 19.944,31.474 C20.024,31.097 20.105,30.732 20.188,30.381 C20.272,30.029 20.345,29.705 20.406,29.406 L20.590,28.550 L19.285,28.550 ZM5.756,28.649 L3.965,28.649 C3.965,24.522 7.179,16.987 14.322,13.156 L15.169,14.732 C8.057,18.546 5.756,25.755 5.756,28.649 Z" class="cls-1"/>
</svg>
