<svg xmlns="http://www.w3.org/2000/svg" xmlns:xlink="http://www.w3.org/1999/xlink" preserveAspectRatio="xMidYMid" width="20" height="20" viewBox="0 0 20 20">
  <defs>
    <style>
      .cls-1 {
        fill: #45484d;
        fill-rule: evenodd;
      }
    </style>
  </defs>
  <path d="M19.995,9.007 L19.995,11.009 L11.002,11.009 L11.002,20.014 L9.004,20.014 L9.004,11.009 L0.010,11.009 L0.010,9.007 L9.004,9.007 L9.004,0.002 L11.002,0.002 L11.002,9.007 L19.995,9.007 ZM15.998,7.006 L17.997,7.006 L17.997,2.003 L13.000,2.003 L13.000,4.004 L15.998,4.004 L15.998,7.006 ZM4.007,4.004 L7.005,4.004 L7.005,2.003 L2.009,2.003 L2.009,7.006 L4.007,7.006 L4.007,4.004 ZM15.998,16.012 L13.000,16.012 L13.000,18.013 L17.997,18.013 L17.997,13.010 L15.998,13.010 L15.998,16.012 ZM4.007,13.010 L2.009,13.010 L2.009,18.013 L7.005,18.013 L7.005,16.012 L4.007,16.012 L4.007,13.010 Z" class="cls-1"/>
</svg>
