<svg xmlns="http://www.w3.org/2000/svg" xmlns:xlink="http://www.w3.org/1999/xlink" preserveAspectRatio="xMidYMid" width="20.031" height="25" viewBox="0 0 20.031 25">
  <defs>
    <style>
      .cls-1 {
        fill: #fff;
        fill-rule: evenodd;
      }
    </style>
  </defs>
  <path d="M0.015,18.689 L0.015,20.657 C1.154,20.657 3.968,20.905 6.741,18.115 C6.342,17.536 6.004,17.000 5.736,16.343 C3.667,18.931 1.035,18.689 0.015,18.689 ZM9.309,7.114 C9.708,7.693 10.039,8.404 10.307,9.062 C12.215,6.674 14.882,6.883 16.202,6.883 L12.957,9.904 L14.372,11.211 C19.359,6.260 18.214,7.399 20.034,5.582 C17.805,3.378 19.042,4.597 14.372,0.001 L12.957,1.558 L16.202,4.915 C14.788,4.915 11.713,4.699 9.309,7.114 ZM14.372,13.770 L12.957,15.330 L16.202,18.689 L15.030,18.689 C11.712,18.689 9.023,16.046 9.023,12.786 L9.023,12.786 C9.023,8.439 5.438,4.915 1.016,4.915 L0.015,4.915 L0.015,6.883 L1.016,6.883 C4.333,6.883 7.022,9.526 7.022,12.786 L7.022,12.786 C7.022,17.133 10.607,20.657 15.030,20.657 L16.202,20.657 L12.957,23.678 L14.372,24.986 C18.989,20.397 17.796,21.583 20.034,19.356 C18.217,17.557 19.361,18.686 14.372,13.770 Z" class="cls-1"/>
</svg>
