<svg xmlns="http://www.w3.org/2000/svg" xmlns:xlink="http://www.w3.org/1999/xlink" preserveAspectRatio="xMidYMid" width="13" height="10" viewBox="0 0 13 10">
  <defs>
    <style>
      .cls-1 {
        fill: #b2b6ff;
        fill-rule: evenodd;
      }
    </style>
  </defs>
  <path d="M12.989,1.601 L4.838,9.986 L4.837,9.985 L4.837,9.986 L-0.007,4.995 L1.531,3.399 L4.837,6.794 L11.451,0.005 L12.989,1.601 Z" class="cls-1"/>
</svg>
