<svg xmlns="http://www.w3.org/2000/svg" xmlns:xlink="http://www.w3.org/1999/xlink" preserveAspectRatio="xMidYMid" width="65.5" height="65.5" viewBox="0 0 65.5 65.5">
  <defs>
    <style>
      .cls-1 {
        stroke: #1ec1c9;
        stroke-width: 1px;
        fill: none;
      }

      .cls-2 {
        fill: #1ec1c9;
      }

      .cls-3 {
        fill: #fff;
        fill-rule: evenodd;
      }
    </style>
  </defs>
  <g>
    <rect x="0.5" y="0.5" width="45" height="45" rx="4" ry="4" class="cls-1"/>
    <rect x="10.5" y="10.5" width="55" height="55" rx="4" ry="4" class="cls-2"/>
    <path d="M38.010,50.993 L38.010,39.991 L30.005,39.991 L38.010,24.988 L38.010,35.990 L46.015,35.990 L38.010,50.993 Z" class="cls-3"/>
  </g>
</svg>
